module gitlab.com/tf3k/core

go 1.20

require (
	github.com/buger/goterm v1.0.4
	github.com/charmbracelet/bubbletea v0.24.1
	github.com/fogleman/ease v0.0.0-20170301025033-8da417bf1776
	github.com/lucasb-eyer/go-colorful v1.2.0
	github.com/manifoldco/promptui v0.9.0
	github.com/muesli/reflow v0.3.0
	github.com/muesli/termenv v0.15.1
	github.com/spf13/cobra v1.7.0
	github.com/spf13/viper v1.15.0
	github.com/stretchr/testify v1.8.2
)

require (
	github.com/atotto/clipboard v0.1.4 // indirect
	github.com/aymanbagabas/go-osc52/v2 v2.0.1 // indirect
	github.com/charmbracelet/bubbles v0.16.1 // indirect
	github.com/charmbracelet/lipgloss v0.7.1 // indirect
	github.com/chzyer/readline v0.0.0-20180603132655-2972be24d48e // indirect
	github.com/containerd/console v1.0.4-0.20230313162750-1ae8d489ac81 // indirect
	github.com/davecgh/go-spew v1.1.1 // indirect
	github.com/fsnotify/fsnotify v1.6.0 // indirect
	github.com/hashicorp/hcl v1.0.0 // indirect
	github.com/inconshreveable/mousetrap v1.1.0 // indirect
	github.com/magiconair/properties v1.8.7 // indirect
	github.com/mattn/go-isatty v0.0.18 // indirect
	github.com/mattn/go-localereader v0.0.1 // indirect
	github.com/mattn/go-runewidth v0.0.14 // indirect
	github.com/mitchellh/mapstructure v1.5.0 // indirect
	github.com/muesli/ansi v0.0.0-20211018074035-2e021307bc4b // indirect
	github.com/muesli/cancelreader v0.2.2 // indirect
	github.com/pelletier/go-toml/v2 v2.0.6 // indirect
	github.com/pmezard/go-difflib v1.0.0 // indirect
	github.com/rivo/uniseg v0.2.0 // indirect
	github.com/spf13/afero v1.9.3 // indirect
	github.com/spf13/cast v1.5.0 // indirect
	github.com/spf13/jwalterweatherman v1.1.0 // indirect
	github.com/spf13/pflag v1.0.5 // indirect
	github.com/subosito/gotenv v1.4.2 // indirect
	golang.org/x/sync v0.1.0 // indirect
	golang.org/x/sys v0.6.0 // indirect
	golang.org/x/term v0.6.0 // indirect
	golang.org/x/text v0.5.0 // indirect
	gopkg.in/ini.v1 v1.67.0 // indirect
	gopkg.in/yaml.v3 v3.0.1 // indirect
)
